{
  "$schema": "https://docs.renovatebot.com/renovate-schema.json",
  "extends": ["config:base"],
  "packageRules": [
    {
      "matchPackageNames": ["influxdb"],
      "allowedVersions": "<2"
    },
    {
      "matchPackageNames": ["neo4j"],
      "allowedVersions": "<5"
    },
    {
      "matchPackagePatterns": ["tomcat(-.+)?"],
      "groupName": "tomcat"
    },
    {
      "matchPackagePatterns": ["swagger(-.+)?"],
      "groupName": "swagger"
    }
  ],
  "labels": ["dependencies"],
  "dependencyDashboard": true,
  "prHourlyLimit": 0
}
